{
    "195":"IndusInd Bank",
  "196":"Federal Bank",
  "199":"Oriental Bank of Commerce",
  "200":"Dhanalakshmi Bank",
  "202":"Catholic Syrian Bank",
  "203":"UCO Bank",
  "204":"ING Vysya Bank",
  "205":"Tamilnad Mercantile Bank",
  "12":"Bank of India",
  "10":"Andhra Bank",
  "11":"Bank of Baroda",
  "13":"Allahabad Bank",
  "211":"Kotak bank",
  "231":"Lakshmi Vilas Bank",
  "232":"State Bank of Bikaner &  jaipur",
  "233":"State Bank of Hyderabad",
  "51":"VIJAYA BANK",
  "234":"State Bank of Indore",
  "235":"State Bank of Mysore",
  "251":"Jammu & Kashmir Bank",
  "31":"HSBC",
  "212":"Cosmos Coop Bank Visa cards",
  "111":"Union Bank of India",
  "112":"Indian Bank",
  "131":"Corporation Bank",
  "236":"State Bank of Travancore",
  "191":"Dena Bank",
  "132":"GE Countrywide",
  "206":"Cosmos Co-op Bank",
  "207":"City Union Bank",
  "32":"Deutsche Bank",
  "151":"Karur Vyasa Bank",
  "192":"Kotak Mahindra Bank",
  "193":"Bank of Rajasthan",
  "14":"Bank of Maharashtra",
  "15":"Canara Bank",
  "16":"Central Bank of India",
  "17":"Centurion Bank of Punjab",
  "8":"Standard Chartered",
  "2":"Amex",
  "4":"CitiBank",
  "9":"Axis Bank",
  "7":"Punjab National Bank",
  "5":"HDFC",
  "6":"ICICI Bank",
  "30":"ICICI",
  "3":"Barclays",
  "1":"ABN Amro",
  "71":"State Bank of India",
  "172":"Indian Overseas Bank",
  "291":"JPMC Bank",
  "171":"IDBI Bank",
  "91":"Syndicate Bank",
  "194":"Saraswat Cooperative Bank",
  "197":"DCB Bank",
  "198":"United Bank of India",
  "201":"Karnataka Bank",
  "271":"Yes Bank",
  "39":"SBI ATM-cum-DEBIT Card",
  "311":"Others",
  "352":"BANK OF AMERICA, NATIONAL ASSOCIATION",
  "353":"THE HONGKONG AND SHANGHAI BANKING CORPORATION LIMITED",
  "354":"MASTERCARD - RPPS (REMOTE PAYMENT AND PRESENTMENT SERVICE)",
  "355":"SBI CARDS & PAYMENT SERVICES PVT. LTD",
  "356":"SOUTH INDIAN BANK LTD., THE",
  "357":"THE RATNAKAR BANK LIMITED",
  "358":"DEBIT ISIS",
  "359":"BHARATIYA MAHILA BANK LIMITED",
  "360":"FIRSTRAND BANK LIMITED",
  "361":"PUNJAB & SIND BANK",
  "362":"THE ROYAL BANK OF SCOTLAND N.V.",
  "363":"THOMAS COOK (INDIA) LIMITED",
  "364":"ABU DHABI COMMERCIAL BANK",
  "365":"ABU DHABI ISLAMIC BANK",
  "366":"AHLI BANK (S.A.O.G)",
  "367":"AHLI BANK Q.S.C.",
  "368":"AHLI UNITED BANK",
  "369":"AHLI UNITED BANK B.S.C.",
  "370":"AJMAN BANK (P.J.S.C.)",
  "371":"AL BILAD BANK",
  "372":"AL HILAL BANK P.J.S.C.",
  "373":"AL KHALIJ COMMERCIAL BANK (Q.S.C.)",
  "374":"AL RAJHI BANKING AND INVESTMENT CORP.",
  "375":"ALAHLI BANK OF KUWAIT (K.S.C.)",
  "376":"ALINMA BANK",
  "377":"ARAB BANK PLC",
  "378":"ARAB FINANCIAL SERVICES COMPANY",
  "379":"ARAB NATIONAL BANK",
  "380":"BAHRAIN ISLAMIC BANK BSC",
  "381":"BANK AL JAZIRA",
  "382":"BANK DHOFAR (S.A.O.G.)",
  "383":"BANK SOHAR (S.A.O.G.)",
  "384":"BANKMUSCAT (SAOG)",
  "385":"BANQUE MISR",
  "386":"BANQUE SAUDI FRANSI",
  "387":"BARCLAYS BANK PLC",
  "388":"BARWA BANK",
  "389":"BMI BANK B.S.C. (C)",
  "390":"BOUBYAN BANK K.S.C.",
  "391":"BURGAN BANK (S.A.K.)",
  "392":"ABU DHABI COMMERCIAL BANK",
  "393":"CREDIMAX B.S.C. (CLOSED)",
  "394":"CREDIT LIBANAIS S.A.L.",
  "395":"DOHA BANK LIMITED",
  "396":"DUBAI BANK PJSC",
  "397":"DUBAI ISLAMIC BANK",
  "398":"EMIRATES NBD BANK (P.J.S.C.)",
  "399":"FIRST GULF BANK PJSC",
  "400":"HABIB BANK AG ZURICH",
  "401":"HSBC BANK MIDDLE EAST",
  "402":"INTERNATIONAL BANK OF QATAR QSC",
  "403":"KHALEEJI COMMERCIAL BANK BSC",
  "404":"KUWAIT FINANCE HOUSE",
  "405":"KUWAIT INTERNATIONAL BANK",
  "406":"LLOYDS TSB BANK PLC",
  "407":"MAJID AL FUTTAIM FINANCE LLC",
  "408":"MASHREQBANK",
  "409":"MASRAF AL RAYAN",
  "410":"NATIONAL BANK OF ABU DHABI",
  "411":"NATIONAL BANK OF BAHRAIN B. S. C.",
  "412":"NATIONAL BANK OF KUWAIT, S.A.K.",
  "413":"NATIONAL BANK OF OMAN LIMITED (S.A.O.G.)",
  "414":"NETWORK INTERNATIONAL LLC",
  "415":"OMAN ARAB BANK SAO",
  "416":"OMAN INTERNATIONAL BANK S.A.O.",
  "417":"QATAR INTERNATIONAL ISLAMIC BANK",
  "418":"QATAR ISLAMIC BANK (S.A.Q.)",
  "419":"QATAR NATIONAL BANK, S. A. Q.",
  "420":"RIYAD BANK",
  "421":"SAMBA FINANCIAL GROUP",
  "422":"SAUDI HOLLANDI BANK",
  "423":"SHARJAH ISLAMIC BANK",
  "424":"STANDARD CHARTERED BANK",
  "425":"THE COMMERCIAL BANK OF DUBAI LIMITED",
  "426":"THE COMMERCIAL BANK OF KUWAIT S.A.K.",
  "427":"THE COMMERCIAL BANK OF QATAR (Q.S.C.)",
  "428":"THE GULF BANK K.S.C.",
  "429":"THE NATIONAL BANK OF RAS AL-KHAIMAH",
  "430":"THE NATIONAL BANK OF UMM AL-QAIWAIN PSC.",
  "431":"THE NATIONAL COMMERCIAL BANK",
  "432":"THE SAUDI BRITISH BANK",
  "433":"UNION NATIONAL BANK",
  "434":"UNITED ARAB BANK",
  "331":"Cosmos Bank",
  "351":"UNITED BANK LIMITED",
  "456":"THE HOUSING BANK FOR TRADE & FINANCE",
  "451":"CITIBANK, NATIONAL ASSOCIATION",
  "452":"BANK OF BAHRAIN & KUWAIT B.S.C",
  "453":"CITICORP CREDIT SERVICES, INC",
  "454":"HABIB BANK LIMITED",
  "455":"INTERPAYMENT SERVICES LIMITED",
  "627":"COMMERCIAL INTERNATIONAL BANK (EGYPT) S.A.E.",
  "739":"FIRST PREMIER BANK",
  "741":"PRESIDENTS CHOICE BANK",
  "839":"SHANGHAI PUDONG DEVELOPMENT BANK",
  "841":"BANCORPSOUTH BANK",
  "843":"NORTH VALLEY BANK",
  "853":"CARD SERVICES FOR CREDIT UNIONS, INC.",
  "855":"MAYBANK",
  "857":"WACHOVIA BANK, N.A.",
  "859":"CHINATRUST COMMERCIAL BANK",
  "861":"NORDEA BANK FINLAND PLC LIETUVOS SKYRIUS",
  "863":"DIE SCHWEIZERISCHE POST",
  "871":"SWISS POST",
  "875":"HSBC BANK MALAYSIA BERHAD",
  "951":"STAR PROCESSING, INC.",
  "953":"PNC BANK, NATIONAL ASSOCIATION - CONSUMER CREDIT",
  "955":"ING BANK SLASKI, S.A.",
  "967":"CAPITAL ONE BANK (CANADA BRANCH)",
  "969":"COMMERCIAL BANK OF AFRICA, LTD.",
  "971":"BANCO CREDITO INVERSIONES",
  "973":"CITY BANK, LTD.",
  "975":"CUSCAL, LTD.",
  "1049":"JSB KAZKOMMERTSBANK",
  "1051":"FIRST BANK OF DELAWARE",
  "1053":"DNB NOR BANK ASA",
  "1055":"CHINA CITIC BANK",
  "1057":"ECOBANK RWANDA S.A.",
  "1059":"PRIORBANK JSCB",
  "1061":"ANZ ROYAL BANK CAMBODIA, LTD.",
  "1063":"MICARD CO., LTD.",
  "1065":"ANZ NATIONAL BANK, LTD.",
  "1067":"BANCO BILBAO VIZCAYA ARGENTARIA S.A. (BBVA)",
  "1069":"REGIONS BANK",
  "1071":"LA FEDERATION DES CAISSES DESJARDINS DU QUEBEC",
  "1073":"BANGKOK BANK PUBLIC CO., LTD.",
  "1075":"AMERICAN EXPRESS",
  "1077":"SOCIETE GENERALE",
  "1079":"HSBC BANK",
  "1081":"MKB BANK ZRT.",
  "1085":"E. SUN COMMERCIAL BANK, LTD.",
  "1093":"SIAM COMMERCIAL BANK PUBLIC CO., LTD.",
  "1095":"CREDIT DU NORD",
  "1097":"CU ELECTRONIC TRANSACTION SERVICES, INC.",
  "1099":"SUMITOMO MITSUI CARD COMPANY, LTD.",
  "1101":"JPMORGAN CHASE BANK, N.A.",
  "1103":"WESTPAC",
  "1105":"HSBC BANK CANADA",
  "1107":"VISA NORGE A/S",
  "1115":"DEUTSCHE BANK AG",
  "1145":"FIRST TECHNOLOGY F.C.U.",
  "1147":"ROYAL C.U.",
  "1159":"FIRST DIRECT, DIVISION OF HSBC UK",
  "1319":"DELTA SKYMILES",
  "1321":"DUNIA FINANCE L.L.C.",
  "1323":"MBNA CANADA BANK",
  "1325":"SWEDBANK, A.S.",
  "1327":"SANTANDER CONSUMO, S.A. DE C.V. SOFOM, E.R.",
  "1345":"CHINA MINSHENG BANKING CORP., LTD.",
  "1347":"ING EX BBL BRUSSELS",
  "1349":"BANK OF AMERICA, N.A.",
  "1595":"GE MONEY BANK, S.A.",
  "1599":"ING BANK (AUSTRALIA), LTD.",
  "1601":"NUEVO BANCO DEL CHACO, S.A.",
  "1605":"CAJA DE AHORROS DE MADRID (CAJA MADRID)",
  "1607":"HSBC BANK (TAIWAN), LTD.",
  "603":"DBS BANK, LTD.",
  "605":"FIDELITY INFORMATION SERVICES, INC.",
  "607":"REPUBLIC BANK, LTD.",
  "609":"CENTEA",
  "611":"ADVANZIA BANK, S.A.",
  "613":"DANSKE BANK AKTIESELSKAB, DENMARK, SWEDEN BRANCH",
  "615":"ERSTE BANK DER OSTERREICHISCHEN SPARKASSEN AG",
  "617":"KEARNY COUNTY BANK",
  "619":"U.S. BANK, N.A.",
  "621":"U.S. BANK N.A. ND",
  "623":"KOREA EXCHANGE BANK",
  "625":"EURO KARTENSYSTEME GMBH",
  "629":"SCOTIABANK INVERLAT, S.A.",
  "631":"BRITISH AIRWAYS",
  "633":"PASADENA F.C.U.",
  "635":"R RAPHAEL AND SONS",
  "637":"ROYAL BANK OF CANADA",
  "639":"SUMISHIN LIFE CARD CO., LTD.",
  "641":"BANCO COOPERATIVO ESPANOL, S.A.",
  "643":"NEPAL INVESTMENT BANK, LTD.",
  "645":"GULF BANK K.S.C.",
  "647":"BB AND T FINANCIAL, F.S.B.",
  "649":"WESTPAC BANKING CORPORATION",
  "651":"CITIBANK, N.A., PHILIPPINES",
  "653":"BANK OF SCOTLAND",
  "655":"ING BELGIUM SA/NV",
  "657":"JSCB FOR FOREIGN TRADE OF VIETNAM",
  "659":"BANK OF MONTREAL",
  "661":"PT BANK DANAMON INDONESIA TBK",
  "663":"JSCB KAPITALBANK",
  "665":"Wirecard Card Solutions",
  "667":"PT. BANK CIMB NIAGA TBK.",
  "669":"KOTAK MAHINDRA BANK, LTD.",
  "671":"EAST WEST BANKING CORPORATION",
  "673":"QIWI BANK (JSC)",
  "675":"SHINHAN CARD CO., LTD.",
  "677":"DC CARD COMPANY, LTD.",
  "679":"R RAPHAEL AND SONS PLC",
  "681":"ULSTER BANK",
  "683":"LUFTHANSA AIRPLUS SERVICEKARTEN GMBH",
  "685":"EUROPAY BELGIUM S.C.R.L.",
  "687":"BLOM BANK S.A.L.",
  "689":"COMPASS BANK",
  "691":"T.C. ZIRAAT BANKASI, A.S.",
  "693":"BANK OF COMMUNICATIONS",
  "695":"BANK OF AMERICA",
  "697":"FIA CARD SERVICES, NATIONAL ASSOCIATION (2)",
  "699":"AMERICAN EXPRESS COMPANY",
  "701":"FIRST NATIONAL BANK OF PENNSYLVANIA",
  "703":"CEC BANK, S.A.",
  "705":"EPOS CARD CO., LTD.",
  "707":"NATIONAL BANK OF EGYPT",
  "709":"ING BANK, N.V.",
  "711":"SANTANDER CARDS UK, LTD.",
  "713":"BANK OF VALLETTA P.L.C",
  "715":"CREATION FINANCIAL SERVICES",
  "717":"OTP BANK JSC",
  "719":"USAA SAVINGS BANK",
  "721":"GE CAPITAL FINANCE AUSTRALIA",
  "723":"BANK OF CHINA, LTD.",
  "725":"CORTAL CONSORS",
  "727":"SAMPO PANKKI OYJ",
  "729":"BANK OF ENGLAND",
  "731":"AZERBAIJAN INDUSTRY BANK OSC",
  "733":"TCF NATIONAL BANK",
  "735":"BANCO MARE NOSTRUM S.A",
  "737":"BARCLAYS BANK DELAWARE",
  "743":"DEUTSCHE POSTBANK AG",
  "745":"ERSTE BANK DER OESTERREICHISCHEN SPARKASSEN AG",
  "747":"ENTRUST F.C.U.",
  "749":"BANK HAPOALIM B M",
  "751":"ING DIRECT, N.V.",
  "753":"BANCO SABADELL, S.A.",
  "755":"NATIONAL COMMERCIAL BANK",
  "757":"NOVA LJUBLJANSKA BANKA D.D., LJUBLJANA",
  "759":"BANK OF TAIWAN",
  "761":"OTKRITIE BANK JSC",
  "763":"KOOKMIN BANK",
  "765":"ABSA BANK, LTD.",
  "767":"CITIBANK SINGAPORE, LTD.",
  "769":"CARTASI S.P.A.",
  "771":"F M E F.C.U.",
  "773":"DEUTSCHE BANK S.P.A.",
  "775":"RAIFFEISEN BANK, S.A.",
  "777":"CHINA CONSTRUCTION BANK CORPORATION",
  "779":"ORIENT CORPORATION",
  "781":"JSC HALYK SAVINGS BANK OF KAZAKHSTAN",
  "783":"MBNA EUROPE BANK, LTD.",
  "785":"KRUNGTHAI CARD PUBLIC CO., LTD.",
  "787":"EXIM BANK TANZANIA, LTD.",
  "789":"BANK OF THE WEST",
  "791":"CAPITAL ONE (EUROPE) PLC",
  "793":"ULSTER BANK, LTD.",
  "795":"DEUTSCHE BANK PBC, S.A.",
  "797":"CITIGROUP PTY, LTD.",
  "799":"CAPITAL ONE, N.A.",
  "801":"MITSUBISHI UFJ FINANCIAL GROUP, INC.",
  "803":"BANK AUDI S.A.E.",
  "805":"HYUNDAICARD CO., LTD.",
  "807":"BANCO DAVIVIENDA, S.A.",
  "809":"CITIBANK - COLOMBIA",
  "811":"HSBC BANK ARMENIA CJSC",
  "813":"POWSZECHNA KASA OSZCZEDNOSCI BANK POLSKI SA (PKO BANK POLSKI",
  "815":"EUROPAY (EUROCARD) ISRAEL, LTD.",
  "817":"PEOPLES TRUST",
  "819":"FLEET NATIONAL BANK MERCHANT SERVICES",
  "821":"BANCOLOMBIA, S.A.",
  "823":"BANK ALFALAH, LTD.",
  "825":"TORONTO-DOMINION BANK",
  "827":"ASYA KATILIM BANKASI, A.S.",
  "829":"PEOPLES TRUST COMPANY",
  "831":"SUNCORP-METWAY, LTD.",
  "833":"CLYDESDALE BANK PLC",
  "835":"DC CARD CO., LTD.",
  "837":"HONG LEONG BANK BERHAD",
  "845":"NORDEA BANK DANMARK A/S",
  "847":"BANK OF HAWAII CREDIT CARD",
  "849":"FIRST INTERSTATE BANK",
  "851":"OJSC BANK URALSIB",
  "865":"DZ BANK AG DEUTSCHE ZENTRAL- GENOSSENSCHAFTSBANK",
  "867":"CITIBANK (SOUTH DAKOTA), N.A.",
  "873":"BANCO DE CREDITO DEL PERU",
  "877":"BANK OF NOVA SCOTIA",
  "879":"NORDEA BANK NORGE ASA HK",
  "881":"OVERSEA-CHINESE BANKING CORP., LTD.",
  "883":"RAKUTEN CARD CO., LTD.",
  "885":"AMERICAN EXPRESS US",
  "887":"AB CITADELE BANKAS",
  "889":"UNICREDIT BANK HUNGARY ZRT.",
  "891":"HSBC BANK USA, N.A.",
  "893":"OJSC ROSGOSSTRAKH BANK",
  "895":"WORLD FINANCIAL NETWORK BANK",
  "897":"BONUSCARD.CH AG",
  "899":"BANK AUDI- AUDI SARADAR GROUP",
  "901":"HIMALAYAN BANK, LTD.",
  "903":"BILBAO BIZKAIA KUTXA (BBK)",
  "905":"CANADIAN TIRE BANK",
  "907":"BAYERISCHE LANDESBANK",
  "909":"BANCO DE ORO UNIBANK, INC.",
  "911":"ROYAL BANK OF SCOTLAND",
  "913":"NORWICH AND PETERBOROUGH BUILDING SOCIETY",
  "915":"WHATCOM EDUCATIONAL C.U.",
  "917":"TARJETAS BANAMEX, SA DE CV, SOFOM E.R.",
  "919":"UNITED OVERSEAS BANK, LTD.",
  "921":"MASTERCARD FRANCE S.A.S.",
  "923":"BANCA NAZIONALE DEL LAVORO S.P.A. - BNL",
  "925":"BANCORP BANK / VANILLA",
  "927":"APS FINANCIAL, LTD.",
  "929":"SAVINGS BANK OF THE RUSSIAN FEDERATION (SBERBANK)",
  "931":"CREDIT INDUSTRIEL ET COMMERCIAL",
  "933":"HSBC MEXICO S.A., INSTITUCION DE BANCA MULTIPLE, GRUPO FINAN",
  "935":"HSBC BANK BRASIL S.A. - BANCO MULTIPLO",
  "937":"METRO C.U.",
  "939":"BANCO BEST",
  "941":"BANKMUSCAT LTD. (S.A.O.G.)",
  "943":"BANCO ITAU URUGUAY, S.A.",
  "945":"PUBLIC BANK BERHAD",
  "947":"ALIOR BANK SPOLKA AKCYJNA",
  "949":"TATRA BANKA, A.S.",
  "957":"BRAC BANK, LTD.",
  "959":"HSBC BANK PLC",
  "961":"GARANTI",
  "963":"CAMDEN NATIONAL BANK",
  "965":"SOCIETE GENERALE, S.A.",
  "977":"ZAO RAIFFEISENBANK",
  "979":"KBC CONSUMER FINANCE, N.V.",
  "981":"DANSKE BANK A/S",
  "983":"THAI FARMERS BANK PUBLIC COMPANY, LTD.",
  "985":"HSBC BANK USA, N.A. ASSOCIATION",
  "987":"VALLEY NATIONAL BANK",
  "989":"SBERBANK OF RUSSIA",
  "991":"KRUNG THAI BANK PUBLIC CO., LTD.",
  "993":"BANK MILLENNIUM SPOLKA AKCYJNA",
  "995":"HIGHLANDS UNION BANK",
  "997":"HONGKONG AND SHANGHAI BANKING CORP., LTD.",
  "999":"CRESCENT STATE BANK",
  "1001":"COMMERCIAL INNOVATION BANK ALFA-BANK",
  "1003":"FINANSBANK, A.S.",
  "1005":"SAMPO PANKKI OYJ / SAMPO BANK PLC",
  "1007":"BANQUE DE KIGALI",
  "1009":"SAUDI INVESTMENT BANK",
  "1011":"SEYLAN BANK, LTD.",
  "1013":"HERITAGE BUILDING SOCIETY, LTD.",
  "1015":"CREDIT SUISSE",
  "1017":"BANCO DO BRASIL, S.A.",
  "1019":"JSCB ROSBANK",
  "1021":"CREDIT SAISON CO., LTD.",
  "1023":"BRE BANK SPOLKA AKCYJNA",
  "1025":"COMMERCIAL BANK MOBIASBANCA - GROUPE SOCIETE GENERALE, S.A.",
  "1027":"HANG SENG BANK, LTD.",
  "1029":"STANDARD BANK OF SOUTH AFRICA, LTD.",
  "1031":"AEON CREDIT SERVICE (ASIA) CO., LTD.",
  "1033":"AKB SVIAZ-BANK OJSC",
  "1035":"CREDIT AGRICOLE, S.A.",
  "1037":"BANCO ITAU PARAGUAY, S.A.",
  "1039":"DEVELOPMENT CREDIT BANK, LTD.",
  "1041":"Regions Financial Corporation",
  "1043":"ASOCIACION LA NACIONAL DE AHORROS Y PRESTAMOS",
  "1045":"BBVA BANCOMER, S.A.",
  "1047":"EUROCARD AB",
  "1091":"MALAYAN BANKING BERHAD",
  "1109":"INTERBANK",
  "1111":"BC CARD CO., LTD.",
  "1113":"STANDARD CHARTERED GRINDLAYS (OFFSHORE), LTD.",
  "1117":"CAIXABANK S.A.",
  "1119":"SPARBANKEN FINN",
  "1121":"TRANSWEST C.U.",
  "1123":"POSTE ITALIANE",
  "1125":"COLUMBIA STATE BANK",
  "1127":"NEPAL GRINDLAYS BANK, LTD.",
  "1129":"BANK OF THE PHILIPPINE ISLANDS",
  "1131":"UNICREDIT BANK CZECH REPUBLIC, A.S.",
  "1133":"BANCO ABN AMRO REAL, S.A.",
  "1135":"RHB BANK BERHAD",
  "1137":"TURKIYE IS BANKASI, A.S.",
  "1139":"KASIKORNBANK PUBLIC CO., LTD.",
  "1141":"NATIONAL WESTMINSTER BANK PLC",
  "1143":"BANKINTER, S.A.",
  "1149":"BC MOLDINDCONBANK, S.A.",
  "1151":"SKANDIABANKEN",
  "1153":"NATIONAL AGRICULTURAL COOPERATIVE FEDERATION",
  "1155":"PNC BANK, N.A.",
  "1157":"NOVA LJUBLJANSKA BANKA D.D.",
  "1161":"WAL-MART CANADA BANK",
  "1163":"GE CAPITAL RETAIL BANK",
  "1165":"VERBAND DER SPARDA BANKEN E.V.",
  "1167":"CITIBANK, N.A.",
  "1169":"CITIBANK (HONG KONG), LTD.",
  "1171":"BRANCH BANKING AND TRUST COMPANY",
  "1173":"CAIXA ECONOMICA FEDERAL",
  "1175":"CAPITAL ONE BANK (USA), N.A.",
  "1177":"EASTERN BANK, LTD.",
  "1179":"SANTANDER UK PLC",
  "1181":"BANK POLSKA KASA OPIEKI S.A. (BANK PEKAO SA)",
  "1183":"HUNTINGTON NATIONAL BANK",
  "1185":"HUA NAN COMMERCIAL BANK, LTD.",
  "1187":"NORDEA BANK FINLAND PLC",
  "1189":"PBS INTERNATIONAL A/S",
  "1191":"CATHAY UNITED BANK",
  "1193":"QATAR NATIONAL BANK",
  "1195":"MEGA INTERNATIONAL COMMERCIAL BANK CO., LTD.",
  "1197":"BOC CREDIT CARD (INTERNATIONAL), LTD.",
  "1199":"CAISSE CENTRALE DE CREDIT MUTUEL",
  "1201":"NETWORK INTERNATIONAL",
  "1203":"BANK OF MALDIVES PLC",
  "1205":"CASSA CENTRALE BANCA - CREDITO COOPERATIVO DEL NORD E",
  "1207":"ERSTE BANK HUNGARY ZRT.",
  "1209":"JPMORGAN CHASE BANK CANADA",
  "1211":"CJSC ALFA-BANK",
  "1213":"JSC MINSK TRANSIT BANK",
  "1215":"COMMERCIAL BANK OF KUWAIT, S.A.K.",
  "1217":"EUROPAY AUSTRIA ZAHLUNGSVERKEHRSSYSTEME GMBH",
  "1219":"CREDIT BANK OF MOSCOW (CBM)",
  "1221":"UC CARD CO., LTD.",
  "1223":"PJSC UKRSIBBANK",
  "1225":"TARJETAS BANAMEX S.A. DE C.V. SOFOM ENTIDAD REGULADA",
  "1227":"BANCO BRADESCO, S.A.",
  "1229":"EUROBANK",
  "1231":"UNITED BANK, LTD.",
  "1233":"HSBC BANK AUSTRALIA, LTD.",
  "1235":"FIFTH THIRD BANK",
  "1237":"WILMINGTON TRUST, N.A.",
  "1239":"ZUERCHER KANTONALBANK",
  "1241":"ISRAEL CREDIT CARDS, LTD.",
  "1243":"BANCO INDUSTRIAL, S.A.",
  "1245":"PT BANK MANDIRI (PERSERO) TBK",
  "1247":"VANQUIS BANK, LTD.",
  "1249":"FIRST COMMONWEALTH BANK",
  "1251":"JSC SEB BANKA",
  "1253":"CIB BANK ZRT.",
  "1255":"BANQUE FEDERATIVE DU CREDIT MUTUEL (BFCM)",
  "1257":"CAIXA DESTALVIS DE CATALUNYA (CAJA DE AHORROS DE CATALUNA)",
  "1259":"ERSTE CARD CLUB D.D.",
  "1261":"DZ BANK AG",
  "1263":"MADURO AND CURIEL'S BANK, N.V.",
  "1265":"BANK OF CANADA",
  "1267":"CIMB BANK BERHAD",
  "1269":"CITIBANK EUROPE PUBLIC LIMITED COMPANY",
  "1271":"HYUNDAI CARD COMPANY, LTD.",
  "1273":"MASTERCAJAS, S.A.",
  "1275":"BANCO SANTANDER, S.A.",
  "1277":"NORDEA BANK AB",
  "1279":"SAUDI BRITISH BANK",
  "1281":"PATELCO C.U.",
  "1283":"ALLIED IRISH BANKS PLC",
  "1285":"BANCO NACIONAL ULTRAMARINO, S.A.",
  "1287":"KIWIBANK, LTD.",
  "1289":"CORNER BANCA, S.A.",
  "1291":"NATWEST",
  "1293":"CANADIAN IMPERIAL BANK OF COMMERCE",
  "1295":"EMIRATES NBD BANK",
  "1297":"KAZKOMMERTSBANK",
  "1299":"UNITED OVERSEAS BANK(THAI)PUBLIC CO., LTD.",
  "1301":"AUSTRALIA AND NEW ZEALAND BANKING GROUP, LTD.",
  "1303":"VICTORIABANK",
  "1305":"NATIONAL AUSTRALIA BANK, LTD.",
  "1307":"CHINA GUANGFA BANK CO., LTD.",
  "1309":"WELLS FARGO BANK, N.A.",
  "1311":"LANDESBANK BADEN-WUERTTEMBERG",
  "1313":"SECURE TRUST BANK PLC",
  "1315":"SVYAZNOY BANK (JSC)",
  "1317":"MCB BANK, LTD.",
  "1329":"JSCB AVANGARD",
  "1331":"1ST SOURCE BANK",
  "1333":"RAKUTEN KC CO., LTD.",
  "1335":"JORDAN AHLI BANK",
  "1337":"CAJA DE CREDITO DEL COLEGIO DE INGENIEROS DE CATALUNA",
  "1339":"VISECA CARD SERVICES, S.A.",
  "1341":"NATIXIS",
  "1343":"COMMERCIAL BANK PRIVATBANK",
  "1351":"BANK OF WESTERN AUSTRALIA, LTD.",
  "1353":"AMBANK (M) BERHAD",
  "1355":"EMIRATES NBD",
  "1357":"COMMERZBANK AG",
  "1359":"CONISTER BANK, LTD.",
  "1361":"BANCO BRADESCO",
  "1363":"NATIONAL BANK OF CANADA",
  "1365":"BANQUE DE CREDIT DE BUJUMBURA (BCB)",
  "1367":"EPOS CARD COMPANY, LTD.",
  "1369":"UNICREDIT BANK",
  "1371":"LA BANQUE POSTALE",
  "1373":"BANK OF HAWAII",
  "1375":"CASSA CENTRALE RAIFFEISEN DELL'ALTO ADIGE",
  "1377":"INTERNATIONAL CARD SERVICES BV",
  "1379":"E. SUN COMMERCIAL BANK CO., LTD.",
  "1381":"COMMERCIAL BANK OF DUBAI",
  "1383":"PAYLIFE BANK GMBH",
  "1385":"ASB BANK",
  "1387":"FIRST BANK OF NIGERIA PLC",
  "1389":"CB PRIVATBANK",
  "1391":"CARD SERVICES FOR CREDIT UNIONS",
  "1393":"COOPERATIEVE CENTRALE RAIFFEISEN-BOEREN-LEENBANK BA",
  "1395":"SEB KORT AB (HELSINKI BRANCH)",
  "1397":"TURKIYE GARANTI BANKASI A. S.",
  "1399":"SANTANDER UK",
  "1401":"AMAN BANK FOR COMMERCE AND INVESTMENT",
  "1403":"CAJA DE AHORROS DE GALICIA, VIGO, ORENSE Y PONTEVEDRA",
  "1405":"CITI CARDS JAPAN, INC.",
  "1407":"BOEING EMPLOYEES C.U.",
  "1409":"ANZ BANK, LTD.",
  "1411":"ING-DIBA AG",
  "1413":"WESTPAC NEW ZEALAND, LTD.",
  "1415":"VINCENTO PAYMENT SOLUTIONS, LTD.",
  "1417":"UBS AG",
  "1419":"TD BANK, N.A.",
  "1421":"SUNTRUST BANKS, INC.",
  "1423":"CITIBANK INTERNATIONAL PLC",
  "1425":"KBC BANK N.V.",
  "1427":"PT. BANK CENTRAL ASIA",
  "1429":"CITIBANK BERHAD",
  "1431":"CHASE",
  "1433":"DEUTSCHER SPARKASSEN UND GIROVERBAND",
  "1435":"BANCA MONTE DEI PASCHI DI SIENA S.P.A.",
  "1437":"SUMITOMO MITSUI CARD CO., LTD.",
  "1439":"TELLER, A.S.",
  "1441":"CAISSE NATIONALE DES CAISSES D'EPARGNE (CNCE)",
  "1443":"SWEDBANK AB",
  "1445":"POHJOLA BANK PLC",
  "1447":"JSC KREDOBANK",
  "1449":"COMDIRECT BANK AG",
  "1451":"WGZ BANK AG WESTDEUTSCHE GENOSSENSCHAFTS-ZENTRALBANK",
  "1453":"CESKA SPORITELNA, A.S (CZECH SAVINGS BANK)",
  "1455":"RBC ROYAL BANK OF CANADA",
  "1457":"UNIVERSITY OF WISCONSIN C.U.",
  "1459":"ARAB FINANCIAL SERVICES COMPANY B.S.C. (C)",
  "1461":"CAJA DE AHORROS Y PENSIONES DE BARCELONA(LA CAIXA)",
  "1463":"NATIONAL BANK",
  "1465":"STADTSPARKASSE MUENCHEN",
  "1467":"NOOR ISLAMIC BANK",
  "1469":"GOVERNOR AND COMPANY OF THE BANK OF IRELAND",
  "1471":"TAPIOLA PANKKI OY",
  "1473":"SAFEWAY LOS ANGELES F.C.U.",
  "1475":"BANCO SECURITY",
  "1477":"NATIONAL BANK OF RAS AL-KHAIMAH (RAKBANK)",
  "1479":"FIRSTRAND BANK, LTD.",
  "1481":"AMERICAN AIRLINES",
  "1483":"CHINATRUST COMMERCIAL BANK, LTD.",
  "1485":"BANK BPH SPOLKA AKCYJNA",
  "1487":"BANK OF NEW ZEALAND",
  "1489":"JOHNS HOPKINS F.C.U.",
  "1491":"NATIONWIDE BUILDING SOCIETY",
  "1493":"CAIXA GERAL DE DEPOSITOS, S.A.",
  "1495":"S-PANKKI OY (S-BANK LIMITED)",
  "1497":"STANDARD CHARTERED BANK MALAYSIA BERHAD",
  "1499":"BELARUSSIAN BANK OF DEVELOPMENT AND RECONSTRUCTION BELINVEST",
  "1501":"ST. GEORGE BANK, LTD.",
  "1503":"INTERNATIONAL BANK OF AZERBAIJAN",
  "1505":"TAIPEI FUBON COMMERCIAL BANK CO., LTD.",
  "1507":"CIM FINANCE, LTD.",
  "1509":"BLUE SKY",
  "1511":"UNICREDIT S.P.A.",
  "1513":"HSBC BANK NEVADA, N.A.",
  "1515":"BANCO DE GALICIA Y BUENOS AIRES",
  "1517":"ING DIRECT N.V. SUCURSAL EN ESPANA",
  "1519":"SKANDINAVISKA ENSKILDA BANKEN AB",
  "1521":"DIAMOND BANK, LTD.",
  "1523":"FAYSAL BANK, LTD.",
  "1525":"SINGAPORE AIRLINES KRISFLYER BY INTERBANK",
  "1527":"FINECOBANK S.P.A.",
  "1529":"BANCA DI SASSARI S.P.A.",
  "1531":"BNP PARIBAS",
  "1533":"BANK PHB PLC",
  "1535":"CAJA DE AHORROS DE MURCIA (CAJA MURCIA)",
  "1537":"BANCO DE CREDITO E INVERSIONES",
  "1539":"VISA AUSTRIA",
  "1541":"BANCO CREDICOOP COOPERATIVO LTDO.",
  "1543":"BBAC S.A.L",
  "1545":"STATE BANK OF MAURITIUS, LTD.",
  "1547":"CHINA EVERBRIGHT BANK",
  "1549":"ING BANK, F.S.B.",
  "1551":"BANCO DE CHILE",
  "1553":"UAE EXCHANGE CENTRE LLC",
  "1555":"CONTECNICA, S.A.",
  "1557":"BANK LEUMI LE-ISRAEL B.M.",
  "1559":"TINKOFF CREDIT SYSTEMS BANK (CJSC)",
  "1561":"BANK OF SCOTLAND PLC",
  "1563":"BANCO SANTANDER (BRASIL), S.A.",
  "1565":"SVENSKA HANDELSBANKEN AB",
  "1567":"REDWOOD C.U.",
  "1569":"CHASE BANK USA, N.A.",
  "1571":"COMMERCIAL BANK OF ZIMBABWE, LTD.",
  "1573":"DEUTSCHE KREDITBANK AKTIENGESELLSCHAFT",
  "1575":"VTB24",
  "1577":"TCM BANK, N.A.",
  "1579":"ROYAL BANK OF SCOTLAND PLC",
  "1581":"U.S. BANK NATIONAL ASSOCIATION, ND",
  "1583":"EUROPAY FRANCE SAS",
  "1585":"GRCC",
  "1587":"PORTOSEG S.A. CREDITO FINANCIAMENTO E INVESTIMENTO",
  "1589":"GUYANA BANK FOR TRADE AND INDUSTRY, LTD.",
  "1591":"SAMSUNG CARD CO., LTD.",
  "1593":"WORLDS FOREMOST BANK",
  "1597":"BANCO ITAU CHILE",
  "1603":"VALES INTERCONTINENTALES, S.A.",
  "1609":"BANCO COMERCIAL PORTUGUES, S.A.",
  "1611":"COMMONWEALTH BANK OF AUSTRALIA",
  "1613":"COMMERCIAL INTERNATIONAL BANK",
  "1615":"KOKUNAI SHINPAN CO., LTD.",
  "1617":"NEDBANK, LTD.",
  "1619":"BARCLAYS BANK",
  "1621":"GE MONEY BANK AG",
  "1623":"HITACHI CAPITAL CORPORATION",
  "1625":"BANK HAPOALIM",
  "1627":"SEB VILNIAUS BANKAS AB",
  "1629":"NATIONAL SOCIETE GENERALE BANK S.A.E.",
  "1631":"BARCLAYS BANK - BRITISH AIRWAYS",
  "1633":"ITAU UNIBANCO, S.A.",
  "1635":"AS SEB PANK",
  "1637":"INTESA SANPAOLO S.P.A.",
  "1639":"BANK ZACHODNI WBK, S.A.",
  "1641":"COLE TAYLOR BANK",
  "1643":"AS SEB BANKA",
  "1645":"INDUE, LTD.",
  "1647":"VSB INTERNATIONAL B.V.",
  "1649":"BANCO ESPIRITO SANTO, S.A.",
  "1651":"LANDESBANK BERLIN AG",
  "1653":"STANDARD CHARTERED BANK (HONG KONG), LTD.",
  "1655":"CREDIT LYONNAIS",
  "1657":"METROBANK CARD CORPORATION (A FINANCE COMPANY)",
  "1659":"PT. BANK CENTRAL ASIA TBK",
  "1661":"RAIFFEISEN ZENTRALBANK OESTERREICH AG",
  "1663":"PNC BANK, GLOBAL INVESTMENT SERVICING",
  "1665":"CITIBANK (CHINA) CO., LTD.",
  "1667":"NAVY F.C.U.",
  "1669":"FIA CARD SERVICES, N.A.",
  "1671":"CHINA MERCHANTS BANK",
  "1673":"AUDI BANK",
  "1675":"ABSA GROUP, LTD.",
  "1677":"BANCO ESPANOL DE CREDITO (BANESTO)",
  "1679":"ACCESS BANK PLC",
  "1681":"BANCO BNP PARIBAS PERSONAL FINANCE, S.A.",
  "1683":"CO-OPERATIVE BANK PLC",
  "1685":"SVENSKA HANDELSBANKEN AB (PUBL)",
  "1687":"BANK CENTER CREDIT",
  "1689":"HOUSING BANK FOR TRADE AND FINANCE",
  "1691":"JCB INTERNATIONAL CREDIT CARD CO., LTD.",
  "1693":"ASIA COMMERCIAL BANK",
  "1695":"CALIFORNIA UNION BANK",
  "869":"KOMERCNI BANKA, A.S.",
  "1083":"RAIFFEISEN BANK SH.A.",
  "1087":"HSBC(UK)",
  "1089":"KB KOOKMIN CARD CO., LTD.",
  "5000714":"ZEEEEEEEE"
  }
  
  